<svg width="56" height="56" viewBox="0 0 56 56" fill="none" xmlns="http://www.w3.org/2000/svg">
<rect x="0.5" y="0.5" width="55" height="55" rx="7.5" fill="white" stroke="#0D4CD3"/>
<path d="M44.1985 21.9417C44.0569 20.0865 42.6408 17.708 41.2247 16.5663C39.6323 15.3979 37.9777 14.3181 36.2684 13.3316C34.5721 12.3183 32.8231 11.3973 31.0289 10.5725C30.0706 10.1785 29.0429 9.98433 28.008 10.0017C26.9727 9.97975 25.9441 10.1741 24.987 10.5725C23.1932 11.3979 21.4442 12.3188 19.7475 13.3316C17.0098 14.9965 14.7913 16.5663 14.7913 16.5663C13.6436 17.5343 12.7701 18.7761 12.2416 20.1658C12.1228 20.4781 12.3628 20.7999 12.6969 20.7999H14.7286C15.1001 20.7999 15.4362 20.5907 15.6359 20.2773C16.0292 19.6601 16.5172 19.1017 17.087 18.6244C17.087 18.6244 18.9188 17.3371 21.1793 15.9718C22.5802 15.1414 24.0243 14.3862 25.5055 13.7094C26.2957 13.3827 27.145 13.2234 27.9998 13.2413C28.8543 13.2271 29.7028 13.3863 30.4941 13.7094C31.9755 14.3857 33.4196 15.1409 34.8203 15.9718C36.2316 16.7808 37.5977 17.6663 38.9126 18.6244C40.0818 19.5605 41.251 21.5109 41.3679 23.0322C41.3679 23.0322 41.6408 25.2946 41.6797 27.9744C41.6773 29.6294 41.5863 31.2831 41.4069 32.9284C41.135 34.651 40.2489 36.2169 38.9126 37.3362C38.9126 37.3362 37.0808 38.6625 34.8203 40.0277C33.4194 40.8581 31.9753 41.6134 30.4941 42.2901C29.7039 42.6168 28.8546 42.7762 27.9998 42.7582C27.1461 42.7762 26.2976 42.6209 25.5055 42.3018C24.0241 41.6255 22.58 40.8703 21.1793 40.0394C18.9188 38.7132 17.087 37.3479 17.087 37.3479C16.5886 36.9488 16.0901 36.3653 15.6701 35.7094C15.4731 35.4016 15.1407 35.1997 14.7753 35.1997H12.7091C12.3707 35.1997 12.1312 35.5288 12.2604 35.8416C12.8339 37.2311 13.8126 38.6109 14.7913 39.3999C14.7913 39.3999 17.0098 41.0649 19.7475 42.6823C21.4439 43.6955 23.1929 44.6166 24.987 45.4413C25.9464 45.8304 26.974 46.0198 28.008 45.9979C29.0433 46.0198 30.0718 45.8254 31.0289 45.427C32.8228 44.6017 34.5717 43.6807 36.2684 42.668C39.0062 41.003 41.2247 39.3857 41.2247 39.3857C42.8431 38.0206 43.9163 36.1111 44.2457 34.0102C44.4629 32.0038 44.5732 29.9872 44.5761 27.9689C44.5289 24.7008 44.1985 21.9417 44.1985 21.9417Z" fill="url(#paint0_linear_119_2027)"/>
<path d="M11.4398 24.0423C11.4398 23.6446 11.7622 23.3223 12.1598 23.3223H23.3198C23.7174 23.3223 24.0398 23.6446 24.0398 24.0423V26.2022C24.0398 26.5999 23.7174 26.9222 23.3198 26.9222H11.4398V24.0423Z" fill="#0066B3"/>
<path d="M11.4397 29.082H34.1196C34.5172 29.082 34.8396 29.4044 34.8396 29.802V31.962C34.8396 32.3596 34.5172 32.682 34.1196 32.682H12.1597C11.7621 32.682 11.4397 32.3596 11.4397 31.962V29.082Z" fill="#EE2F53"/>
<defs>
<linearGradient id="paint0_linear_119_2027" x1="28.3007" y1="10" x2="28.3007" y2="45.9996" gradientUnits="userSpaceOnUse">
<stop stop-color="#0066B3"/>
<stop offset="0.354167" stop-color="#0066B3"/>
<stop offset="0.6875" stop-color="#EE2F53"/>
<stop offset="1" stop-color="#EE2F53"/>
</linearGradient>
</defs>
</svg>
